<svg id="A1" data-name="A1" xmlns="http://www.w3.org/2000/svg" xmlns:xlink="http://www.w3.org/1999/xlink" width="57" height="44.763" viewBox="0 0 57 44.763">
  <defs>
    <clipPath id="clip-path">
      <rect id="Rectangle_1148" data-name="Rectangle 1148" width="57" height="44.763" fill="#e42a61"/>
    </clipPath>
  </defs>
  <g id="A1" data-name="A1" clip-path="url(#clip-path)">
    <path id="Path_1547" data-name="Path 1547" d="M30.114,34.855c.1,2.74-.471,4.157-3.7,4.444v3.61h.967q4.264,0,8.529,0c.264,0,.584-.079.778.04.31.19.751.524.743.784-.011.334-.388.678-.659.969-.087.094-.337.047-.512.047q-15.035-.01-30.071-.015c-.669,0-1.228-.139-1.234-.9-.007-.82.6-.94,1.29-.936,2.872.016,5.744.007,8.615.007h1.113V39.238c-1.147-.03-2.367-.127-2.938-1.216a18.445,18.445,0,0,1-1.005-3.247c-1.335,0-2.881,0-4.426,0-1,0-2,.03-2.988-.042a4.908,4.908,0,0,1-4.6-4.883Q-.015,17.4.017,4.96a4.9,4.9,0,0,1,5-4.94q16.266-.036,32.533,0a4.913,4.913,0,0,1,4.868,4.8c.009.26,0,.521,0,.984,1.407-.424,2.708-.795,3.988-1.227.174-.059.284-.414.354-.653A5.177,5.177,0,0,1,52.147.053a5.283,5.283,0,0,1,4.805,4.5,5.265,5.265,0,0,1-3.5,5.662c-.219.079-.442.147-.679.225-.02.158-.035.3-.056.445a2.025,2.025,0,0,0,1.432,2.555,4.611,4.611,0,0,1,2.821,4.838,5,5,0,0,1-3.212,4.544c-.315.139-.648.238-1.043.38a13.538,13.538,0,0,0,.03,1.921c.035.241.377.534.642.63a5.226,5.226,0,0,1-3,10.011,5.034,5.034,0,0,1-3.78-4.645,1.076,1.076,0,0,0-.991-1.221c-1.018-.241-2.013-.583-3.1-.907-.037.3-.083.512-.089.728a4.979,4.979,0,0,1-5.093,5.046c-2.2.028-4.4,0-6.595.011a5.488,5.488,0,0,0-.624.074m-8.9-1.94q7.91,0,15.819,0a3.22,3.22,0,0,0,3.548-3.534q.01-5.338,0-10.675,0-6.636,0-13.272a3.242,3.242,0,0,0-3.6-3.586q-15.731-.007-31.462,0c-2.413,0-3.64,1.225-3.641,3.612q-.006,11.955,0,23.911c0,2.331,1.241,3.546,3.6,3.548q7.865,0,15.73,0M47.076,28.4a5.6,5.6,0,0,1,3.33-2.715.735.735,0,0,0,.406-.53c.05-.665.019-1.337.019-1.98-2.641-.784-4.146-2.521-4.256-4.842-.124-2.622,1.118-4.258,4.222-5.542V10.654a15.435,15.435,0,0,1-2.6-1.645,14.564,14.564,0,0,1-1.713-2.452c-.493.144-1.082.305-1.664.49-.776.246-1.837.292-2.237.827s-.148,1.563-.15,2.375c-.008,5.35-.015,10.7.012,16.05a1.057,1.057,0,0,0,.485.826c1.348.47,2.728.85,4.148,1.276M14.232,34.812c0,.466-.009.87,0,1.273a1.11,1.11,0,0,0,1.251,1.235q5.759.018,11.517,0a1.089,1.089,0,0,0,1.2-1.2c.009-.427,0-.854,0-1.308ZM55.108,17.969a3.338,3.338,0,0,0-3.374-3.315,3.4,3.4,0,0,0-3.328,3.387,3.353,3.353,0,0,0,3.4,3.3,3.309,3.309,0,0,0,3.3-3.372M51.755,1.931a3.374,3.374,0,0,0-3.348,3.354A3.406,3.406,0,0,0,51.786,8.63a3.352,3.352,0,0,0,3.32-3.375,3.3,3.3,0,0,0-3.351-3.325m3.354,28.822A3.305,3.305,0,0,0,51.78,27.4a3.349,3.349,0,1,0-.02,6.7,3.34,3.34,0,0,0,3.348-3.345M24.45,39.279H17.992V42.85H24.45Z" transform="translate(0 0)" fill="#e42a61"/>
    <path id="Path_1548" data-name="Path 1548" d="M25.92,56.824h30.1a2.326,2.326,0,0,0,.105-.474c.042-2.335.109-4.67.1-7.005-.01-4.1-.066-8.2-.1-12.3,0-.352,0-.7.011-1.055.02-.575.274-.973.893-.973.65,0,.942.4.944,1.019,0,1.5,0,2.99,0,4.485q0,8.354,0,16.708c0,1.324-.208,1.532-1.525,1.532q-15.475,0-30.95,0c-1.2,0-1.467-.259-1.467-1.42q0-10.422,0-20.844c0-.263-.072-.6.059-.772.22-.293.576-.664.876-.666s.685.358.876.659a1.952,1.952,0,0,1,.073.946q0,9.542,0,19.085v1.079" transform="translate(-19.791 -28.858)" fill="#e42a61"/>
    <path id="Path_1549" data-name="Path 1549" d="M50.929,38.557c-1.7,0-3.394.006-5.091,0-1.031-.005-1.308-.263-1.317-1.3q-.029-3.38-.007-6.76c.005-.947.318-1.24,1.288-1.241q5.222-.007,10.443,0c1.045,0,1.332.3,1.335,1.377q.01,3.248,0,6.5c0,1.151-.293,1.424-1.473,1.426q-2.59,0-5.179,0M55.646,31.2H46.438v5.426h9.209Z" transform="translate(-36.68 -24.108)" fill="#e42a61"/>
    <path id="Path_1550" data-name="Path 1550" d="M60.159,137.079q-5.716,0-11.431-.005a1.578,1.578,0,0,1-.848-.113c-.271-.2-.61-.579-.578-.84.039-.321.393-.644.683-.877.147-.118.452-.048.686-.048q6.147-.006,12.294-.008,5.129,0,10.258.009a2.388,2.388,0,0,1,1.192.166,1.4,1.4,0,0,1,.613,1c0,.238-.5.609-.829.676a8.914,8.914,0,0,1-1.752.042q-5.144,0-10.288,0" transform="translate(-38.982 -111.407)" fill="#e42a61"/>
    <path id="Path_1551" data-name="Path 1551" d="M55.381,113.25q6.89,0,13.779,0c.848,0,1.7-.066,2.543-.034.562.022,1.171.144,1.2.888.024.709-.551.834-1.082.9a12.209,12.209,0,0,1-1.489.059c-1.888.006-3.777.019-5.665,0-1.979-.021-3.958-.1-5.938-.108-1.159-.006-2.319.092-3.478.1q-3.548.026-7.1,0c-.586,0-1.054-.275-1.03-.944.024-.7.5-.921,1.142-.919,2.372.006,4.744,0,7.117,0,0,.019,0,.039,0,.058" transform="translate(-38.836 -93.287)" fill="#e42a61"/>
    <path id="Path_1552" data-name="Path 1552" d="M60.3,92.87q-5.757,0-11.514,0c-.263,0-.595.073-.773-.056-.3-.214-.676-.564-.679-.858s.37-.656.662-.875c.173-.13.51-.053.773-.053q11.47,0,22.941,0c.263,0,.6-.075.771.058a1.547,1.547,0,0,1,.635.9c.017.265-.338.63-.618.811a1.745,1.745,0,0,1-.859.072q-5.669,0-11.339,0" transform="translate(-39.012 -75.002)" fill="#e42a61"/>
    <path id="Path_1553" data-name="Path 1553" d="M130.527,47.577c-1.641,0-3.281-.009-4.922.006-.662.006-1.227-.164-1.247-.907s.531-.962,1.2-.961q4.966.007,9.932.006c.626,0,1.142.192,1.152.909.011.771-.525.954-1.191.951-1.641-.009-3.281,0-4.922,0" transform="translate(-102.491 -37.676)" fill="#e42a61"/>
    <path id="Path_1554" data-name="Path 1554" d="M130.555,63.792c1.611,0,3.223.005,4.834,0,.639,0,1.233.1,1.25.886.017.826-.567.973-1.26.971q-4.878-.015-9.755,0c-.654,0-1.239-.143-1.259-.893-.022-.805.575-.972,1.269-.966,1.64.014,3.281,0,4.921,0" transform="translate(-102.497 -52.571)" fill="#e42a61"/>
  </g>
</svg>
