<svg xmlns="http://www.w3.org/2000/svg" xmlns:xlink="http://www.w3.org/1999/xlink" width="44.741" height="29.6" viewBox="0 0 44.741 29.6">
  <defs>
    <clipPath id="clip-path">
      <rect id="Rectangle_1162" data-name="Rectangle 1162" width="29.6" height="44.741" fill="none"/>
    </clipPath>
  </defs>
  <g id="Group_4361" data-name="Group 4361" transform="translate(44.741) rotate(90)">
    <g id="Group_4259" data-name="Group 4259" transform="translate(0 0)" clip-path="url(#clip-path)">
      <path id="Path_1471" data-name="Path 1471" d="M2.312,25.42,1.56,24.378c1.259-.2,2.488-.384,3.714-.583.816-.133,1.64-.215,2.446-.407a1.384,1.384,0,0,1,.686-.179c.275-.039.353-.165.317-.44-.2-1.547-.392-3.1-.587-4.644Q7.424,12.465,6.713,6.8c-.046-.373-.1-.745-.136-1.119a.483.483,0,0,1,.035-.332,4.646,4.646,0,0,0-.076-.676c-.079-.306.061-.382.325-.442q3.843-.882,7.682-1.784Q19.779,1.229,25.014,0a.718.718,0,0,1,.132,0Q25,1.119,24.863,2.227q-.365,2.881-.729,5.762Q23.815,10.5,23.492,13q-.366,2.881-.728,5.762c-.1.8-.2,1.6-.323,2.4-.04.272.015.348.306.306,2.457-.355,4.916-.694,7.374-1.037.066-.009.133-.015.259-.03l-13.481,24-.729-.941c-.14-.023-.2-.139-.278-.236-1.3-1.684-2.591-3.381-3.889-5.07Q7.83,32.734,3.665,27.295c-.383-.5-.755-1-1.139-1.5a.7.7,0,0,1-.214-.38" transform="translate(-0.78 0)" fill="#010b1b"/>
      <path id="Path_1472" data-name="Path 1472" d="M1.532,50.841c.809,1.043,1.624,2.083,2.427,3.13Q9.677,61.43,15.39,68.892l-.755,1.27L0,51.065l1.532-.224" transform="translate(0 -25.421)" fill="#2196f2"/>
      <path id="Path_1473" data-name="Path 1473" d="M10.554,10.707c.137,1.015.28,2.029.408,3.045.219,1.728.427,3.457.644,5.185q.331,2.642.669,5.284c.172,1.354.337,2.71.52,4.063.031.229,0,.332-.254.35a6.872,6.872,0,0,1-.878.108Q11.33,26.135,11,23.529q-.312-2.471-.618-4.944c-.306-2.437-.609-4.875-.926-7.311-.033-.252.03-.344.269-.382.281-.045.556-.122.833-.185" transform="translate(-4.722 -5.354)" fill="#2196f2"/>
      <path id="Path_1474" data-name="Path 1474" d="M18.14,44.132c-.891-1.152-1.787-2.3-2.673-3.456Q10.106,33.683,4.749,26.687c.062-.149.206-.125.322-.143,1.3-.2,2.588-.41,3.884-.6a.56.56,0,0,0,.473-.373c.538-.088,1.075-.188,1.616-.261.21-.028.252-.1.226-.307q-.754-5.924-1.493-11.851C9.517,11.1,9.248,9.049,8.987,7c-.017-.135-.012-.272-.018-.408.094-.161.265-.165.417-.2q4.5-1.042,8.992-2.1,3.03-.711,6.062-1.414c.47-.109.559-.032.5.449-.39,2.937-.752,5.878-1.127,8.817-.383,3-.778,5.988-1.132,8.987-.108.917-.26,1.828-.36,2.746-.036.326,0,.367.322.322q2.879-.4,5.755-.808c.372-.054.746-.094,1.118-.151.113-.017.24-.036.32.063.1.124,0,.24-.055.345-.668,1.194-1.341,2.385-2.007,3.579-1.654,2.968-3.329,5.922-4.988,8.886q-1.72,3.074-3.452,6.141c-.287.506-.575,1.011-.856,1.52-.08.145-.134.322-.333.362" transform="translate(-2.374 -1.417)" fill="#2296f2"/>
      <path id="Path_1475" data-name="Path 1475" d="M22.3,43.655c.809-1.426,1.623-2.849,2.426-4.277q4.43-7.88,8.854-15.762c.139-.247.276-.495.449-.807-.622.085-1.188.16-1.753.239-1.872.262-3.744.522-5.614.793-.277.04-.352-.02-.314-.31q.578-4.369,1.134-8.74c.356-2.8.7-5.6,1.053-8.406.153-1.22.308-2.44.479-3.657.039-.277-.015-.332-.29-.268q-4.937,1.163-9.877,2.31-2.861.668-5.72,1.34c-.16-.27.03-.3.225-.341q3.842-.894,7.681-1.795l8.811-2.056c.052-.012.106-.022.195-.041-.1.8-.2,1.58-.3,2.356q-.6,4.694-1.2,9.389c-.4,3.119-.787,6.238-1.19,9.355-.036.279,0,.344.3.3,2.333-.342,4.668-.665,7-.993a.48.48,0,0,1,.1.016L22.568,44a.856.856,0,0,1-.268-.346" transform="translate(-6.534 -0.939)" fill="#fdfdfd"/>
      <path id="Path_1476" data-name="Path 1476" d="M9.2,48.314c.076.311-.044.416-.365.46-1.44.2-2.876.433-4.313.654a.962.962,0,0,1-.23-.369L9.2,48.314" transform="translate(-2.144 -24.157)" fill="#fafbfb"/>
    </g>
  </g>
</svg>
