<svg xmlns="http://www.w3.org/2000/svg" xmlns:xlink="http://www.w3.org/1999/xlink" width="46" height="47" viewBox="0 0 46 47">
  <defs>
    <clipPath id="clip-path">
      <rect id="Rectangle_1151" data-name="Rectangle 1151" width="46" height="47" transform="translate(0.076 -0.243)" fill="#2f4576" stroke="#2f4576" stroke-width="1"/>
    </clipPath>
  </defs>
  <g id="Group_4243" data-name="Group 4243" transform="translate(-0.076 0.243)">
    <g id="Group_4242" data-name="Group 4242" clip-path="url(#clip-path)">
      <path id="Path_1562" data-name="Path 1562" d="M5.342,22.529A17.922,17.922,0,0,1,22.564,5.341V4.113c0-1.069,0-2.137,0-3.206,0-.6.216-.9.626-.907s.643.3.644.889c0,1.286,0,2.571,0,3.857v.559c.819.1,1.6.176,2.368.3A17.825,17.825,0,0,1,40.8,20.214,18.773,18.773,0,0,1,41,22.1c.021.373.155.474.517.468,1.269-.02,2.538-.008,3.807-.008.117,0,.234,0,.351,0,.4.014.68.186.715.613.031.376-.26.647-.721.652-1.169.012-2.338,0-3.507,0H41.06A17.918,17.918,0,0,1,23.866,41.052c-.011.2-.029.38-.029.556q0,1.879,0,3.757c0,.117,0,.234,0,.351-.028.4-.221.683-.648.672s-.614-.3-.616-.7c-.006-1.319,0-2.638,0-3.957v-.666A17.929,17.929,0,0,1,5.339,23.834H2.2c-.484,0-.969.009-1.453,0C.276,23.819,0,23.571,0,23.2s.279-.626.75-.629c1.386-.009,2.772,0,4.158-.006.13,0,.261-.019.433-.032m34.378,1.305H37.691c-.758,0-1.051-.168-1.068-.609-.018-.467.294-.661,1.067-.662h2.028C39.6,13.813,31.849,6.654,23.835,6.7c0,.177,0,.355,0,.534,0,.618.007,1.236-.005,1.853-.008.406-.208.684-.638.68s-.612-.288-.626-.693c-.006-.184,0-.367,0-.551,0-.612,0-1.223,0-1.9A16.368,16.368,0,0,0,10.8,12.213a16.181,16.181,0,0,0-4.173,10.35h.585c.618,0,1.236-.011,1.853.011a.581.581,0,0,1,.612.6.6.6,0,0,1-.615.651c-.2.019-.4.008-.6.008H6.621A16.406,16.406,0,0,0,12.56,35.9a16.1,16.1,0,0,0,10.005,3.869c0-.878-.014-1.661,0-2.444.014-.556.5-.9.9-.616a1.027,1.027,0,0,1,.347.705c.044.761.016,1.525.016,2.286,8.015.045,15.765-7.1,15.884-15.862" transform="translate(-0.001 0)" fill="#2f4576" stroke="#2f4576" stroke-width="1"/>
      <path id="Path_1563" data-name="Path 1563" d="M146,263.664h-8.516c-.8,0-.974-.165-.976-.964,0-1.269,0-2.538,0-3.807a5.183,5.183,0,0,1,1.021-3.235,4.017,4.017,0,0,1,3.3-1.7c.718-.008,1.438-.03,2.153.013a1.393,1.393,0,0,1,.8.313,3.142,3.142,0,0,0,4.5-.016,1.333,1.333,0,0,1,.752-.3c.581-.044,1.168-.014,1.752-.014a4.337,4.337,0,0,1,4.509,3.6,7.725,7.725,0,0,1,.152,1.539c.021,1.185.008,2.371.006,3.556,0,.839-.164,1-.988,1H146m.007-1.276c1.453,0,2.906-.019,4.359.011.489.01.685-.095.653-.629-.048-.816-.021-1.636-.007-2.454.008-.462.279-.76.65-.726a.638.638,0,0,1,.615.715c.006.551,0,1.1,0,1.653,0,1.521,0,1.514,1.524,1.436.28-.014.382-.106.379-.384-.011-1.152.035-2.307-.029-3.456a4.152,4.152,0,0,0-.423-1.579,2.789,2.789,0,0,0-2.789-1.742c-.45.024-.905-.03-1.351.016a1.613,1.613,0,0,0-.8.285,4.238,4.238,0,0,1-5.045.292,3.142,3.142,0,0,0-2.175-.591c-.25.014-.5.007-.751,0a2.577,2.577,0,0,0-1.857.746,3.685,3.685,0,0,0-1.176,2.729c-.016.735,0,1.47,0,2.2,0,1.509,0,1.5,1.537,1.479.343,0,.469-.1.46-.454-.022-.851-.012-1.7,0-2.555,0-.5.249-.8.633-.8s.628.292.633.8c.008.835.022,1.671-.006,2.5-.014.4.127.512.517.507,1.486-.02,2.973-.008,4.459-.008" transform="translate(-122.83 -228.498)" fill="#2f4576" stroke="#2f4576" stroke-width="1"/>
      <path id="Path_1564" data-name="Path 1564" d="M175.56,112.28a5.951,5.951,0,0,1,5.921,5.379c.073.544.168,1.084.251,1.626a1.661,1.661,0,0,1-.515,1.4,2.016,2.016,0,0,0-.4.659,6.141,6.141,0,0,1-4.741,4.464,4.077,4.077,0,0,1-2.879-.6,6.331,6.331,0,0,1-2.981-3.805,1.7,1.7,0,0,0-.4-.652,1.747,1.747,0,0,1-.49-1.736c.146-.613.172-1.254.3-1.871a6,6,0,0,1,5.926-4.866M175.7,124.6a6.228,6.228,0,0,0,1.142-.334,5.011,5.011,0,0,0,2.816-3.553,1.133,1.133,0,0,1,.565-.887.5.5,0,0,0,.22-.392c-.038-.494-.12-.985-.2-1.476a4.735,4.735,0,0,0-9.389-.472c-.133.649-.225,1.308-.294,1.967a.522.522,0,0,0,.263.407.889.889,0,0,1,.54.768,4.947,4.947,0,0,0,1.393,2.662A4.109,4.109,0,0,0,175.7,124.6" transform="translate(-152.305 -101.027)" fill="#2f4576" stroke="#2f4576" stroke-width="1"/>
    </g>
  </g>
</svg>
