<svg id="Group_4367" data-name="Group 4367" xmlns="http://www.w3.org/2000/svg" xmlns:xlink="http://www.w3.org/1999/xlink" width="72.227" height="72" viewBox="0 0 72.227 72">
  <defs>
    <clipPath id="clip-path">
      <rect id="Rectangle_1374" data-name="Rectangle 1374" width="72.227" height="72" fill="#0382f2"/>
    </clipPath>
  </defs>
  <g id="Group_4366" data-name="Group 4366" clip-path="url(#clip-path)">
    <path id="Path_2040" data-name="Path 2040" d="M242.515,355.432c-.332-4.577.9-8.27,5.9-10.793,1.356-.684,2.757-1.28,4.131-1.929a11.227,11.227,0,0,0,1.1-.616,2.336,2.336,0,0,0,1.364-2.469,1.012,1.012,0,0,1,0-.271,3.713,3.713,0,0,0-1.028-3.3,5.938,5.938,0,0,1-1.376-2.956,1.211,1.211,0,0,0-.485-.765,4.277,4.277,0,0,1-1.042-5.765.779.779,0,0,0,.019-.58,11.671,11.671,0,0,1-.244-6.635,10.022,10.022,0,0,1,6.424-6.786,15.29,15.29,0,0,1,6.3-.948.575.575,0,0,1,.387.28c.3.541.545,1.107.84,1.649a.647.647,0,0,0,.386.312,6.232,6.232,0,0,1,4.288,2.4c.98-.363,1.909-.746,2.863-1.051a11.5,11.5,0,0,1,3.926-.478.617.617,0,0,1,.432.279c.265.471.468.978.733,1.449a.747.747,0,0,0,.449.358c3.946.568,5.337,3.823,5.56,6.6a10.7,10.7,0,0,1-.545,4.228.813.813,0,0,0,.017.585,5.3,5.3,0,0,1-1.018,6.087,1.371,1.371,0,0,0-.351.723,9.628,9.628,0,0,1-1.274,3.686,1.137,1.137,0,0,0-.16.542c-.02.617.028,1.238-.017,1.852a1.468,1.468,0,0,0,.71,1.374,14.615,14.615,0,0,0,1.946,1.128c1.559.749,3.177,1.382,4.7,2.192a9.018,9.018,0,0,1,4.974,6.459c.194,1.028.235,2.085.35,3.162Zm34.2-3.145A5.161,5.161,0,0,0,275.03,349a11.575,11.575,0,0,0-1.995-1.388c-1.264-.663-2.584-1.22-3.876-1.832a9.95,9.95,0,0,1-3.772-2.649,3.465,3.465,0,0,1-.95-2.007c-.039-1.581-.018-3.163,0-4.745a.772.772,0,0,1,.211-.507,5.231,5.231,0,0,0,1.669-3.788,2.291,2.291,0,0,1,1.019-1.934,1.985,1.985,0,0,0,.42-2.848c-.183-.276-.411-.524-.573-.811a.581.581,0,0,1-.018-.462,10.038,10.038,0,0,0,.557-1.027,8.325,8.325,0,0,0,0-5.538,3.709,3.709,0,0,0-3.169-2.663,7.47,7.47,0,0,0-1.218-.03.546.546,0,0,1-.621-.375,8.819,8.819,0,0,0-.609-1.208.557.557,0,0,0-.432-.241,18.914,18.914,0,0,0-2.445.4,7.062,7.062,0,0,0-5.171,4.237,8.033,8.033,0,0,0,.221,6.37c.316.723.437,1.209-.249,1.842a1.454,1.454,0,0,0,.514,2.514c.113.037.213.118.327.153.347.107.455.329.493.694a5.987,5.987,0,0,0,2.533,4.582.715.715,0,0,1,.244.513c.019,1.6.016,3.194.005,4.79a1.907,1.907,0,0,1-.13.655,6,6,0,0,1-2.707,3.05c-1,.58-2.049,1.079-3.1,1.567a22.993,22.993,0,0,0-4.059,2.156,5.507,5.507,0,0,0-2.285,3.809Zm12.417.024a5.239,5.239,0,0,0-1.329-2.393,11.066,11.066,0,0,0-3.334-2.122c-1.3-.593-2.645-1.1-3.9-1.765a11.587,11.587,0,0,1-2.407-1.72,3.541,3.541,0,0,1-1.212-2.941c.058-.839.03-1.686,0-2.529a1.455,1.455,0,0,1,.452-1.289,1.627,1.627,0,0,0,.42-.785,16.323,16.323,0,0,0,.671-2.887,1.622,1.622,0,0,1,.909-1.426,2.334,2.334,0,0,0,.346-3.392c-.558-.554-.557-.554-.207-1.253.047-.094.1-.187.139-.284a7.529,7.529,0,0,0,.233-5.591,3.125,3.125,0,0,0-3.021-2.178c-.346-.016-.7.021-1.037-.022a.663.663,0,0,1-.437-.268c-.223-.373-.382-.784-.593-1.166-.059-.107-.219-.242-.318-.232a7.7,7.7,0,0,0-3.308.961c-.236.144-.232.288-.176.52a10.225,10.225,0,0,1-.36,6.21.72.72,0,0,0,.02.5,4.871,4.871,0,0,1-1.1,6.049.954.954,0,0,0-.236.5,9.225,9.225,0,0,1-1.576,4.042,1.269,1.269,0,0,0-.207.658c-.025.782.044,1.571-.024,2.348a2,2,0,0,0,.985,1.943,19.451,19.451,0,0,0,2.2,1.237c1.294.64,2.634,1.189,3.91,1.862A9.329,9.329,0,0,1,279.922,352c.05.331.238.316.474.316q3.208,0,6.416,0h2.321" transform="translate(-220.547 -283.432)" fill="#0382f2"/>
    <path id="Path_2041" data-name="Path 2041" d="M53.254,28.149H50.163v-17.2H14.116V7.8H42.271V3.128H10.952v7.793H3.137V65.746H18.755v3.1H0V7.8H7.8V0H45.428V7.772h7.826Z" transform="translate(0 0)" fill="#0382f2"/>
    <rect id="Rectangle_1363" data-name="Rectangle 1363" width="6.224" height="3.094" transform="translate(37.625 15.655)" fill="#0382f2"/>
    <rect id="Rectangle_1364" data-name="Rectangle 1364" width="6.21" height="3.096" transform="translate(9.403 15.652)" fill="#0382f2"/>
    <rect id="Rectangle_1365" data-name="Rectangle 1365" width="6.216" height="3.09" transform="translate(23.509 15.653)" fill="#0382f2"/>
    <rect id="Rectangle_1366" data-name="Rectangle 1366" width="6.212" height="3.077" transform="translate(9.411 31.319)" fill="#0382f2"/>
    <rect id="Rectangle_1367" data-name="Rectangle 1367" width="6.211" height="3.096" transform="translate(9.403 39.146)" fill="#0382f2"/>
    <rect id="Rectangle_1368" data-name="Rectangle 1368" width="6.209" height="3.075" transform="translate(9.412 54.816)" fill="#0382f2"/>
    <rect id="Rectangle_1369" data-name="Rectangle 1369" width="6.213" height="3.075" transform="translate(23.522 54.817)" fill="#0382f2"/>
    <rect id="Rectangle_1370" data-name="Rectangle 1370" width="6.233" height="3.054" transform="translate(37.622 23.502)" fill="#0382f2"/>
    <rect id="Rectangle_1371" data-name="Rectangle 1371" width="6.204" height="3.058" transform="translate(9.414 23.5)" fill="#0382f2"/>
    <rect id="Rectangle_1372" data-name="Rectangle 1372" width="6.213" height="3.053" transform="translate(23.517 23.507)" fill="#0382f2"/>
    <rect id="Rectangle_1373" data-name="Rectangle 1373" width="6.208" height="3.046" transform="translate(9.393 47.008)" fill="#0382f2"/>
    <path id="Path_2042" data-name="Path 2042" d="M260.192,346.316h5.791a1.845,1.845,0,0,1-.118.286c-.547.864-1.092,1.729-1.655,2.582a.56.56,0,0,1-.377.243c-1.2.018-2.4.011-3.641.011Z" transform="translate(-236.671 -315.01)" fill="#0382f2"/>
    <path id="Path_2043" data-name="Path 2043" d="M260.151,519.615c1.318,0,2.608,0,3.9.009a.361.361,0,0,1,.25.195c.4.935.8,1.877,1.212,2.868h-5.361Z" transform="translate(-236.634 -472.642)" fill="#0382f2"/>
    <path id="Path_2044" data-name="Path 2044" d="M260.154,433h3.728l.556,3.093h-4.283Z" transform="translate(-236.637 -393.862)" fill="#0382f2"/>
  </g>
</svg>
