<svg id="Group_4245" data-name="Group 4245" xmlns="http://www.w3.org/2000/svg" xmlns:xlink="http://www.w3.org/1999/xlink" width="45.121" height="45.106" viewBox="0 0 45.121 45.106">
  <defs>
    <clipPath id="clip-path">
      <rect id="Rectangle_1152" data-name="Rectangle 1152" width="45.121" height="45.106" fill="#2f4576"/>
    </clipPath>
  </defs>
  <g id="Group_4244" data-name="Group 4244" clip-path="url(#clip-path)">
    <path id="Path_1565" data-name="Path 1565" d="M28.194,33.864H24.469c-.006.134-.017.26-.017.386,0,.766.006,1.532,0,2.3a.963.963,0,0,1-1.077,1.059q-11.145,0-22.291,0A.968.968,0,0,1,0,36.516Q0,22.553,0,8.59A.93.93,0,0,1,1.035,7.539q7.43,0,14.861,0a.946.946,0,0,1,1,.7.908.908,0,0,1-.447,1.038,1.623,1.623,0,0,1-.69.13q-6.677.011-13.353.005h-.5V35.676h20.65V35.2q0-13.281-.01-26.562a.981.981,0,0,1,1.271-1.052.95.95,0,0,1,.627,1.021c.005.872,0,1.744,0,2.644h3.743v-.419q0-4.9,0-9.8A.939.939,0,0,1,28.775.09a.808.808,0,0,1,.99.182,1.36,1.36,0,0,1,.3.764c.033,1.088.027,2.177.006,3.266-.006.331.089.419.419.418Q37.17,4.7,43.847,4.714a4.014,4.014,0,0,1,.43.01.925.925,0,0,1,.844.949.948.948,0,0,1-.88.922c-.119.009-.239,0-.359,0H30.111v4.659H31.95c0-.275,0-.546,0-.816a.953.953,0,1,1,1.9.009q.007,4.128,0,8.256a.952.952,0,1,1-1.9,0c-.007-.573,0-1.146,0-1.747H30.117v11.22h1.835c0-.281,0-.552,0-.822a.949.949,0,0,1,.949-1.035.939.939,0,0,1,.948,1.036q.008,3.7,0,7.394c0,.287,0,.574,0,.862a.954.954,0,1,1-1.9.006c-.007-.55,0-1.1-.008-1.651a.466.466,0,0,0-.03-.1H30.083v.439q0,4.828,0,9.656a1.624,1.624,0,0,1-.062.528.906.906,0,0,1-1.061.591.915.915,0,0,1-.76-.913c-.011-.658,0-1.316,0-1.974q0-3.948,0-7.9v-.44m-.028-16.91H24.48V28.183h3.686ZM31.931,13.2h-7.45v1.825h7.45ZM30.994,30.11H24.472v1.808h6.522Z" transform="translate(0 0)" fill="#2f4576"/>
    <path id="Path_1566" data-name="Path 1566" d="M40.171,141.548h-2.81c0,.594-.006,1.176,0,1.758a.962.962,0,0,1-.362.82.931.931,0,0,1-1.517-.66c-.019-.526-.011-1.052-.011-1.579,0-1.244-.018-2.489.01-3.732a3.264,3.264,0,0,1,3.493-3.211,3.2,3.2,0,0,1,3.044,2.987c.065,1.828.032,3.66.022,5.49a.918.918,0,0,1-.947.922.948.948,0,0,1-.921-.958c-.011-.6,0-1.194,0-1.837m-.005-1.921c0-.535.015-1.012,0-1.487a1.4,1.4,0,0,0-1.284-1.317,1.368,1.368,0,0,0-1.469,1.1,13.039,13.039,0,0,0-.015,1.687c.116.007.221.017.327.017.8,0,1.6,0,2.444,0" transform="translate(-30.771 -117.071)" fill="#2f4576"/>
    <path id="Path_1567" data-name="Path 1567" d="M99.419,139.61q0-1.614,0-3.227c0-1.239.2-1.45,1.429-1.44a14.431,14.431,0,0,1,2.037.072,3.693,3.693,0,0,1,3.109,3.627c.008.633,0,1.267,0,1.9a3.775,3.775,0,0,1-3.8,3.8c-.586,0-1.171.007-1.757,0a.944.944,0,0,1-1.014-1.006c-.009-1.243,0-2.486,0-3.729m1.9,2.831c.37,0,.7.022,1.034,0a1.843,1.843,0,0,0,1.754-1.9c.005-.621.028-1.243-.011-1.862a2.178,2.178,0,0,0-.256-.914c-.494-.868-1.308-1.066-2.522-.894Z" transform="translate(-86.252 -117.073)" fill="#2f4576"/>
    <path id="Path_1568" data-name="Path 1568" d="M36.915,87.092q-3.677,0-7.354,0a.954.954,0,0,1-1.074-.826.9.9,0,0,1,.7-1.02,1.735,1.735,0,0,1,.425-.044q7.336,0,14.671,0a1.547,1.547,0,0,1,.524.087.932.932,0,0,1-.183,1.778,2.812,2.812,0,0,1-.465.023q-3.623,0-7.246,0" transform="translate(-24.709 -73.917)" fill="#2f4576"/>
    <path id="Path_1569" data-name="Path 1569" d="M36.925,243.166q-3.7,0-7.391,0a.933.933,0,0,1-1.045-.894.945.945,0,0,1,.839-.993,1.414,1.414,0,0,1,.179-.007q7.427,0,14.854,0a.955.955,0,0,1,1.022.811.93.93,0,0,1-.923,1.079c-.562.015-1.124,0-1.686,0H36.925" transform="translate(-24.715 -209.322)" fill="#2f4576"/>
    <path id="Path_1570" data-name="Path 1570" d="M142.9,58.8a.934.934,0,1,1,.009-1.868A.934.934,0,0,1,142.9,58.8" transform="translate(-123.158 -49.392)" fill="#2f4576"/>
  </g>
</svg>
