<svg width="26" height="28" viewBox="0 0 26 28" fill="none" xmlns="http://www.w3.org/2000/svg">
<g opacity="0.4">
<circle cx="4.19355" cy="4.19355" r="3.69355" stroke="white"/>
<circle cx="4.19355" cy="23.4839" r="3.69355" stroke="white"/>
<circle cx="21.8068" cy="4.19355" r="3.69355" stroke="white"/>
<path d="M4.19371 19.8956V11.7419M4.19371 11.7419L7.12919 15.5161M4.19371 11.7419L0.838867 15.5161" stroke="white" stroke-width="1.5"/>
<path d="M21.806 20.5484V10.9033M21.806 10.9033L24.7415 14.6775M21.806 10.9033L18.4512 14.6775" stroke="white" stroke-width="1.5"/>
<path d="M7.54785 23.4839H18.4511C19.5694 23.4839 21.8059 22.8968 21.8059 20.5484" stroke="white" stroke-width="1.5"/>
</g>
</svg>
