<svg width="26" height="26" viewBox="0 0 26 26" fill="none" xmlns="http://www.w3.org/2000/svg">
<path d="M22.9375 3.00147C22.3145 2.97949 21.7082 3.20529 21.2514 3.6294C20.7945 4.05352 20.5243 4.64138 20.5 5.26428V7.06397H1.40625C1.29851 7.06397 1.19517 7.10677 1.11899 7.18295C1.0428 7.25914 1 7.36247 1 7.47022V21.689C1 21.7967 1.0428 21.9 1.11899 21.9762C1.19517 22.0524 1.29851 22.0952 1.40625 22.0952H23.3438C23.8823 22.0946 24.3986 21.8804 24.7793 21.4996C25.1601 21.1188 25.3744 20.6025 25.375 20.064V5.26428C25.3507 4.64138 25.0805 4.05352 24.6236 3.6294C24.1668 3.20529 23.5605 2.97949 22.9375 3.00147ZM24.5625 20.064C24.5625 20.3872 24.4341 20.6972 24.2055 20.9258C23.977 21.1543 23.667 21.2827 23.3438 21.2827H1.8125V7.87647H20.5V9.50147C20.5 9.60921 20.5428 9.71254 20.619 9.78873C20.6952 9.86491 20.7985 9.90772 20.9062 9.90772C21.014 9.90772 21.1173 9.86491 21.1935 9.78873C21.2697 9.71254 21.3125 9.60921 21.3125 9.50147V5.26428C21.3581 4.86523 21.5489 4.4969 21.8486 4.22949C22.1483 3.96208 22.5359 3.81429 22.9375 3.81429C23.3391 3.81429 23.7267 3.96208 24.0264 4.22949C24.3261 4.4969 24.5169 4.86523 24.5625 5.26428V17.9726C24.5556 17.9665 24.5471 17.9624 24.5398 17.9567C24.4444 17.8797 24.3434 17.8101 24.2375 17.7483C23.7841 17.4865 23.2621 17.368 22.74 17.4083C22.218 17.4486 21.7204 17.6459 21.3125 17.9742V12.7515C21.3125 12.6437 21.2697 12.5404 21.1935 12.4642C21.1173 12.388 21.014 12.3452 20.9062 12.3452C20.7985 12.3452 20.6952 12.388 20.619 12.4642C20.5428 12.5404 20.5 12.6437 20.5 12.7515V19.6577C20.5 19.7655 20.5428 19.8688 20.619 19.945C20.6952 20.0212 20.7985 20.064 20.9062 20.064C21.014 20.064 21.1173 20.0212 21.1935 19.945C21.2697 19.8688 21.3125 19.7655 21.3125 19.6577C21.3581 19.2587 21.5489 18.8903 21.8486 18.6229C22.1483 18.3555 22.5359 18.2077 22.9375 18.2077C23.3391 18.2077 23.7267 18.3555 24.0264 18.6229C24.3261 18.8903 24.5169 19.2587 24.5625 19.6577V20.064Z" fill="white"/>
<path d="M18.4688 16.4654V14.3764C18.4688 14.161 18.3832 13.9543 18.2308 13.8019C18.0784 13.6496 17.8717 13.5639 17.6563 13.5639H11.5625V11.8813C11.9455 11.7824 12.2792 11.5472 12.5012 11.2199C12.7232 10.8925 12.8181 10.4955 12.7683 10.1031C12.7185 9.71074 12.5272 9.35003 12.2305 9.08857C11.9337 8.82711 11.5518 8.68286 11.1563 8.68286C10.7607 8.68286 10.3788 8.82711 10.082 9.08857C9.78527 9.35003 9.59404 9.71074 9.54421 10.1031C9.49437 10.4955 9.58934 10.8925 9.81132 11.2199C10.0333 11.5472 10.367 11.7824 10.75 11.8813V13.5639H4.65625C4.44077 13.5639 4.2341 13.6496 4.08173 13.8019C3.92936 13.9543 3.84375 14.161 3.84375 14.3764V16.4654C3.4608 16.5643 3.12705 16.7994 2.90507 17.1268C2.68309 17.4541 2.58812 17.8512 2.63796 18.2435C2.68779 18.6359 2.87902 18.9966 3.17578 19.2581C3.47255 19.5195 3.85449 19.6638 4.25 19.6638C4.64552 19.6638 5.02746 19.5195 5.32422 19.2581C5.62099 18.9966 5.81222 18.6359 5.86205 18.2435C5.91189 17.8512 5.81692 17.4541 5.59494 17.1268C5.37296 16.7994 5.03921 16.5643 4.65625 16.4654V14.3764H10.75V16.4654C10.367 16.5643 10.0333 16.7994 9.81132 17.1268C9.58934 17.4541 9.49437 17.8512 9.54421 18.2435C9.59404 18.6359 9.78527 18.9966 10.082 19.2581C10.3788 19.5195 10.7607 19.6638 11.1563 19.6638C11.5518 19.6638 11.9337 19.5195 12.2305 19.2581C12.5272 18.9966 12.7185 18.6359 12.7683 18.2435C12.8181 17.8512 12.7232 17.4541 12.5012 17.1268C12.2792 16.7994 11.9455 16.5643 11.5625 16.4654V14.3764H17.6563V16.4654C17.2733 16.5643 16.9396 16.7994 16.7176 17.1268C16.4956 17.4541 16.4006 17.8512 16.4505 18.2435C16.5003 18.6359 16.6915 18.9966 16.9883 19.2581C17.2851 19.5195 17.667 19.6638 18.0625 19.6638C18.458 19.6638 18.84 19.5195 19.1367 19.2581C19.4335 18.9966 19.6247 18.6359 19.6746 18.2435C19.7244 17.8512 19.6294 17.4541 19.4074 17.1268C19.1855 16.7994 18.8517 16.5643 18.4688 16.4654ZM10.3438 10.3139C10.3438 10.1533 10.3914 9.99616 10.4807 9.86255C10.57 9.72893 10.6969 9.62479 10.8453 9.5633C10.9938 9.5018 11.1572 9.48571 11.3148 9.51706C11.4724 9.54841 11.6171 9.62579 11.7308 9.73942C11.8444 9.85305 11.9218 9.99783 11.9531 10.1554C11.9845 10.313 11.9684 10.4764 11.9069 10.6249C11.8454 10.7733 11.7413 10.9002 11.6077 10.9895C11.474 11.0788 11.317 11.1264 11.1563 11.1264C10.9408 11.1264 10.7341 11.0408 10.5817 10.8885C10.4294 10.7361 10.3438 10.5294 10.3438 10.3139ZM5.0625 18.0327C5.0625 18.1934 5.01485 18.3505 4.92557 18.4841C4.83629 18.6177 4.7094 18.7219 4.56093 18.7834C4.41247 18.8448 4.2491 18.8609 4.09149 18.8296C3.93388 18.7982 3.78911 18.7209 3.67548 18.6072C3.56185 18.4936 3.48447 18.3488 3.45312 18.1912C3.42177 18.0336 3.43786 17.8702 3.49935 17.7218C3.56085 17.5733 3.66499 17.4464 3.7986 17.3571C3.93222 17.2679 4.08931 17.2202 4.25 17.2202C4.46549 17.2202 4.67215 17.3058 4.82453 17.4582C4.9769 17.6105 5.0625 17.8172 5.0625 18.0327ZM11.9688 18.0327C11.9688 18.1934 11.9211 18.3505 11.8318 18.4841C11.7425 18.6177 11.6156 18.7219 11.4672 18.7834C11.3187 18.8448 11.1554 18.8609 10.9977 18.8296C10.8401 18.7982 10.6954 18.7209 10.5817 18.6072C10.4681 18.4936 10.3907 18.3488 10.3594 18.1912C10.328 18.0336 10.3441 17.8702 10.4056 17.7218C10.4671 17.5733 10.5712 17.4464 10.7049 17.3571C10.8385 17.2679 10.9956 17.2202 11.1563 17.2202C11.3717 17.2202 11.5784 17.3058 11.7308 17.4582C11.8832 17.6105 11.9688 17.8172 11.9688 18.0327ZM18.0625 18.8452C17.9018 18.8452 17.7447 18.7975 17.6111 18.7083C17.4775 18.619 17.3733 18.4921 17.3119 18.3436C17.2504 18.1952 17.2343 18.0318 17.2656 17.8742C17.297 17.7166 17.3743 17.5718 17.488 17.4582C17.6016 17.3445 17.7464 17.2672 17.904 17.2358C18.0616 17.2045 18.225 17.2206 18.3734 17.282C18.5219 17.3435 18.6488 17.4477 18.7381 17.5813C18.8274 17.7149 18.875 17.872 18.875 18.0327C18.875 18.2482 18.7894 18.4549 18.637 18.6072C18.4847 18.7596 18.278 18.8452 18.0625 18.8452Z" fill="white"/>
<path d="M20.9062 11.5327C21.1306 11.5327 21.3125 11.3508 21.3125 11.1265C21.3125 10.9021 21.1306 10.7202 20.9062 10.7202C20.6819 10.7202 20.5 10.9021 20.5 11.1265C20.5 11.3508 20.6819 11.5327 20.9062 11.5327Z" fill="white"/>
</svg>
